variants/v5/dump.vcd
$date
	Sun Apr 27 17:40:56 2025
$end
$version
	Icarus Verilog
$end
$timescale
	1s
$end
$scope module rk_test $end
$var wire 1 ! sequence_valid $end
$var wire 1 " output_strobe $end
$var parameter 32 # TR $end
$var parameter 32 $ UART_RX_BAUD $end
$var parameter 32 % UART_TX_baud $end
$var parameter 32 & freq $end
$var reg 8 ' ascii_char [7:0] $end
$var reg 1 ( ascii_valid $end
$var reg 1 ) clk $end
$var reg 1 * rst $end
$scope module mverify $end
$var wire 8 + ascii_char [7:0] $end
$var wire 1 ( char_valid $end
$var wire 1 ) clk $end
$var wire 1 * rst $end
$var wire 1 , whitespace $end
$var wire 1 - vowel $end
$var wire 4 . state [3:0] $end
$var wire 1 / start_stop $end
$var wire 1 0 small_letter $end
$var wire 1 1 punctuation_finance $end
$var wire 1 2 punctuation_basic $end
$var wire 1 3 parentheses $end
$var wire 1 4 other $end
$var wire 1 5 number $end
$var wire 1 6 math_symbol $end
$var wire 1 7 hex_digit $end
$var wire 1 8 curly_braces $end
$var wire 1 9 capital_letter $end
$var parameter 4 : ERROR $end
$var parameter 4 ; IDLE $end
$var parameter 4 < START $end
$var parameter 4 = STOP $end
$var parameter 32 > UART_TX_baud $end
$var parameter 33 ? cnt_val $end
$var parameter 32 @ freq $end
$var reg 1 A already_was $end
$var reg 1 B error_verify $end
$var reg 1 C need_strobe_out $end
$var reg 1 " output_strobe $end
$var reg 1 ! sequence_valid $end
$var reg 1 D strobe_clk $end
$var reg 5 E strobe_cnt [4:0] $end
$scope module ascii_detector $end
$var wire 8 F ascii_char [7:0] $end
$var reg 1 9 capital_letter $end
$var reg 1 8 curly_braces $end
$var reg 1 7 hex_digit $end
$var reg 1 6 math_symbol $end
$var reg 1 5 number $end
$var reg 1 4 other $end
$var reg 1 3 parentheses $end
$var reg 1 2 punctuation_basic $end
$var reg 1 1 punctuation_finance $end
$var reg 1 0 small_letter $end
$var reg 1 / start_stop $end
$var reg 1 - vowel $end
$var reg 1 , whitespace $end
$upscope $end
$scope module prob $end
$var wire 1 9 capital_letter $end
$var wire 1 ) clk $end
$var wire 1 8 curly_braces $end
$var wire 1 B error_verify $end
$var wire 1 7 hex_digit $end
$var wire 1 6 math_symbol $end
$var wire 1 5 number $end
$var wire 1 4 other $end
$var wire 1 3 parentheses $end
$var wire 1 2 punctuation_basic $end
$var wire 1 1 punctuation_finance $end
$var wire 1 * rst $end
$var wire 1 0 small_letter $end
$var wire 1 / start_stop $end
$var wire 4 G state [3:0] $end
$var wire 1 ( valid $end
$var wire 1 - vowel $end
$var wire 1 , whitespace $end
$var parameter 32 H CURLYBRACES1 $end
$var parameter 32 I CURLYBRACES2 $end
$var parameter 32 J ERROR $end
$var parameter 32 K HEXDIGIT1 $end
$var parameter 32 L HEXDIGIT2 $end
$var parameter 32 M IDLE $end
$var parameter 32 N MATHSYMBOL $end
$var parameter 32 O START $end
$var parameter 32 P STOP $end
$var reg 3 Q k [2:0] $end
$var reg 4 R next_state [3:0] $end
$upscope $end
$upscope $end
$scope task cntclk $end
$var reg 8 S cnt [7:0] $end
$scope begin $ivl_for_loop0 $end
$var integer 32 T i [31:0] $end
$upscope $end
$upscope $end
$scope task pch $end
$var reg 8 U putchar [7:0] $end
$upscope $end
$scope task transmit $end
$var reg 800 V str [799:0] $end
$scope begin $unm_blk_12 $end
$var integer 32 W i [31:0] $end
$var integer 32 X len [31:0] $end
$upscope $end
$upscope $end
$upscope $end
$enddefinitions $end
$comment Show the parameter values. $end
$dumpall
b10 P
b1 O
b110 N
b0 M
b111 L
b101 K
b11 J
b1000 I
b100 H
b11001000 @
b1011 ?
b10100 >
b10 =
b1 <
b0 ;
b11 :
b11001000 &
b10100 %
b10100 $
b1010 #
$end
#0
$dumpvars
bx X
bx W
bx V
bx U
b0 T
b1100100 S
bx R
bx Q
bx G
b0 F
bx E
xD
xC
xB
xA
09
08
07
06
05
14
03
02
01
00
1/
bx .
0-
0,
b0 +
1*
0)
0(
b0 '
x"
x!
$end
#1
b0 .
b0 G
b0 R
0B
1A
0C
0!
b1011 E
0D
b0 Q
b1 T
1)
#2
0)
#3
b10 T
1)
#4
0)
#5
b11 T
1)
#6
0)
#7
b100 T
1)
#8
0)
#9
b101 T
1)
#10
0)
#11
b110 T
1)
#12
0)
#13
b111 T
1)
#14
0)
#15
b1000 T
1)
#16
0)
#17
b1001 T
1)
#18
0)
#19
b1010 T
1)
#20
0)
#21
b1011 T
1)
#22
0)
#23
b1100 T
1)
#24
0)
#25
b1101 T
1)
#26
0)
#27
b1110 T
1)
#28
0)
#29
b1111 T
1)
#30
0)
#31
b10000 T
1)
#32
0)
#33
b10001 T
1)
#34
0)
#35
b10010 T
1)
#36
0)
#37
b10011 T
1)
#38
0)
#39
b10100 T
1)
#40
0)
#41
b10101 T
1)
#42
0)
#43
b10110 T
1)
#44
0)
#45
b10111 T
1)
#46
0)
#47
b11000 T
1)
#48
0)
#49
b11001 T
1)
#50
0)
#51
b11010 T
1)
#52
0)
#53
b11011 T
1)
#54
0)
#55
b11100 T
1)
#56
0)
#57
b11101 T
1)
#58
0)
#59
b11110 T
1)
#60
0)
#61
b11111 T
1)
#62
0)
#63
b100000 T
1)
#64
0)
#65
b100001 T
1)
#66
0)
#67
b100010 T
1)
#68
0)
#69
b100011 T
1)
#70
0)
#71
b100100 T
1)
#72
0)
#73
b100101 T
1)
#74
0)
#75
b100110 T
1)
#76
0)
#77
b100111 T
1)
#78
0)
#79
b101000 T
1)
#80
0)
#81
b101001 T
1)
#82
0)
#83
b101010 T
1)
#84
0)
#85
b101011 T
1)
#86
0)
#87
b101100 T
1)
#88
0)
#89
b101101 T
1)
#90
0)
#91
b101110 T
1)
#92
0)
#93
b101111 T
1)
#94
0)
#95
b110000 T
1)
#96
0)
#97
b110001 T
1)
#98
0)
#99
b110010 T
1)
#100
0)
#101
b110011 T
1)
#102
0)
#103
b110100 T
1)
#104
0)
#105
b110101 T
1)
#106
0)
#107
b110110 T
1)
#108
0)
#109
b110111 T
1)
#110
0)
#111
b111000 T
1)
#112
0)
#113
b111001 T
1)
#114
0)
#115
b111010 T
1)
#116
0)
#117
b111011 T
1)
#118
0)
#119
b111100 T
1)
#120
0)
#121
b111101 T
1)
#122
0)
#123
b111110 T
1)
#124
0)
#125
b111111 T
1)
#126
0)
#127
b1000000 T
1)
#128
0)
#129
b1000001 T
1)
#130
0)
#131
b1000010 T
1)
#132
0)
#133
b1000011 T
1)
#134
0)
#135
b1000100 T
1)
#136
0)
#137
b1000101 T
1)
#138
0)
#139
b1000110 T
1)
#140
0)
#141
b1000111 T
1)
#142
0)
#143
b1001000 T
1)
#144
0)
#145
b1001001 T
1)
#146
0)
#147
b1001010 T
1)
#148
0)
#149
b1001011 T
1)
#150
0)
#151
b1001100 T
1)
#152
0)
#153
b1001101 T
1)
#154
0)
#155
b1001110 T
1)
#156
0)
#157
b1001111 T
1)
#158
0)
#159
b1010000 T
1)
#160
0)
#161
b1010001 T
1)
#162
0)
#163
b1010010 T
1)
#164
0)
#165
b1010011 T
1)
#166
0)
#167
b1010100 T
1)
#168
0)
#169
b1010101 T
1)
#170
0)
#171
b1010110 T
1)
#172
0)
#173
b1010111 T
1)
#174
0)
#175
b1011000 T
1)
#176
0)
#177
b1011001 T
1)
#178
0)
#179
b1011010 T
1)
#180
0)
#181
b1011011 T
1)
#182
0)
#183
b1011100 T
1)
#184
0)
#185
b1011101 T
1)
#186
0)
#187
b1011110 T
1)
#188
0)
#189
b1011111 T
1)
#190
0)
#191
b1100000 T
1)
#192
0)
#193
b1100001 T
1)
#194
0)
#195
b1100010 T
1)
#196
0)
#197
b1100011 T
1)
#198
0)
#199
0*
b0 T
1)
#200
0)
#201
0"
b1010 E
b1 T
1)
#202
0)
#203
b1001 E
b10 T
1)
#204
0)
#205
b1000 E
b11 T
1)
#206
0)
#207
b111 E
b100 T
1)
#208
0)
#209
b110 E
b101 T
1)
#210
0)
#211
b101 E
b110 T
1)
#212
0)
#213
b100 E
b111 T
1)
#214
0)
#215
b11 E
b1000 T
1)
#216
0)
#217
b10 E
b1001 T
1)
#218
0)
#219
b1 E
b1010 T
1)
#220
0)
#221
b0 E
b1011 T
1)
#222
0)
#223
1D
b1011 E
b1100 T
1)
#224
0)
#225
0D
b1010 E
b1101 T
1)
#226
0)
#227
b1001 E
b1110 T
1)
#228
0)
#229
b1000 E
b1111 T
1)
#230
0)
#231
b111 E
b10000 T
1)
#232
0)
#233
b110 E
b10001 T
1)
#234
0)
#235
b101 E
b10010 T
1)
#236
0)
#237
b100 E
b10011 T
1)
#238
0)
#239
b11 E
b10100 T
1)
#240
0)
#241
b10 E
b10101 T
1)
#242
0)
#243
b1 E
b10110 T
1)
#244
0)
#245
b0 E
b10111 T
1)
#246
0)
#247
1D
b1011 E
b11000 T
1)
#248
0)
#249
0D
b1010 E
b11001 T
1)
#250
0)
#251
b1001 E
b11010 T
1)
#252
0)
#253
b1000 E
b11011 T
1)
#254
0)
#255
b111 E
b11100 T
1)
#256
0)
#257
b110 E
b11101 T
1)
#258
0)
#259
b101 E
b11110 T
1)
#260
0)
#261
b100 E
b11111 T
1)
#262
0)
#263
b11 E
b100000 T
1)
#264
0)
#265
b10 E
b100001 T
1)
#266
0)
#267
b1 E
b100010 T
1)
#268
0)
#269
b0 E
b100011 T
1)
#270
0)
#271
1D
b1011 E
b100100 T
1)
#272
0)
#273
0D
b1010 E
b100101 T
1)
#274
0)
#275
b1001 E
b100110 T
1)
#276
0)
#277
b1000 E
b100111 T
1)
#278
0)
#279
b111 E
b101000 T
1)
#280
0)
#281
b110 E
b101001 T
1)
#282
0)
#283
b101 E
b101010 T
1)
#284
0)
#285
b100 E
b101011 T
1)
#286
0)
#287
b11 E
b101100 T
1)
#288
0)
#289
b10 E
b101101 T
1)
#290
0)
#291
b1 E
b101110 T
1)
#292
0)
#293
b0 E
b101111 T
1)
#294
0)
#295
1D
b1011 E
b110000 T
1)
#296
0)
#297
0D
b1010 E
b110001 T
1)
#298
0)
#299
b1001 E
b110010 T
1)
#300
0)
#301
b1000 E
b110011 T
1)
#302
0)
#303
b111 E
b110100 T
1)
#304
0)
#305
b110 E
b110101 T
1)
#306
0)
#307
b101 E
b110110 T
1)
#308
0)
#309
b100 E
b110111 T
1)
#310
0)
#311
b11 E
b111000 T
1)
#312
0)
#313
b10 E
b111001 T
1)
#314
0)
#315
b1 E
b111010 T
1)
#316
0)
#317
b0 E
b111011 T
1)
#318
0)
#319
1D
b1011 E
b111100 T
1)
#320
0)
#321
0D
b1010 E
b111101 T
1)
#322
0)
#323
b1001 E
b111110 T
1)
#324
0)
#325
b1000 E
b111111 T
1)
#326
0)
#327
b111 E
b1000000 T
1)
#328
0)
#329
b110 E
b1000001 T
1)
#330
0)
#331
b101 E
b1000010 T
1)
#332
0)
#333
b100 E
b1000011 T
1)
#334
0)
#335
b11 E
b1000100 T
1)
#336
0)
#337
b10 E
b1000101 T
1)
#338
0)
#339
b1 E
b1000110 T
1)
#340
0)
#341
b0 E
b1000111 T
1)
#342
0)
#343
1D
b1011 E
b1001000 T
1)
#344
0)
#345
0D
b1010 E
b1001001 T
1)
#346
0)
#347
b1001 E
b1001010 T
1)
#348
0)
#349
b1000 E
b1001011 T
1)
#350
0)
#351
b111 E
b1001100 T
1)
#352
0)
#353
b110 E
b1001101 T
1)
#354
0)
#355
b101 E
b1001110 T
1)
#356
0)
#357
b100 E
b1001111 T
1)
#358
0)
#359
b11 E
b1010000 T
1)
#360
0)
#361
b10 E
b1010001 T
1)
#362
0)
#363
b1 E
b1010010 T
1)
#364
0)
#365
b0 E
b1010011 T
1)
#366
0)
#367
1D
b1011 E
b1010100 T
1)
#368
0)
#369
0D
b1010 E
b1010101 T
1)
#370
0)
#371
b1001 E
b1010110 T
1)
#372
0)
#373
b1000 E
b1010111 T
1)
#374
0)
#375
b111 E
b1011000 T
1)
#376
0)
#377
b110 E
b1011001 T
1)
#378
0)
#379
b101 E
b1011010 T
1)
#380
0)
#381
b100 E
b1011011 T
1)
#382
0)
#383
b11 E
b1011100 T
1)
#384
0)
#385
b10 E
b1011101 T
1)
#386
0)
#387
b1 E
b1011110 T
1)
#388
0)
#389
b0 E
b1011111 T
1)
#390
0)
#391
1D
b1011 E
b1100000 T
1)
#392
0)
#393
0D
b1010 E
b1100001 T
1)
#394
0)
#395
b1001 E
b1100010 T
1)
#396
0)
#397
b1000 E
b1100011 T
1)
#398
0)
#399
b111 E
b1001 S
b0 U
b1100100 W
b1011 X
b111101100110001010000010011001001000010001010110011001101000011001101000100010001111101 V
b0 T
1)
#400
0)
#401
b110 E
b1 T
1)
#402
0)
#403
b101 E
b10 T
1)
#404
0)
#405
b100 E
b11 T
1)
#406
0)
#407
b11 E
b100 T
1)
#408
0)
#409
b10 E
b101 T
1)
#410
0)
#411
b1 E
b110 T
1)
#412
0)
#413
b0 E
b111 T
1)
#414
0)
#415
1D
b1011 E
b1000 T
1)
#416
0)
#417
0D
b1010 E
b1 S
1(
b0 T
1)
#418
0)
#419
b1001 E
b1 .
b1 G
b1 R
18
04
0/
b1001 S
b1111011 '
b1111011 +
b1111011 F
b1111011 U
b1010 W
0(
b0 T
1)
#420
0)
#421
0A
b1000 E
b1 T
1)
#422
0)
#423
b111 E
b10 T
1)
#424
0)
#425
b110 E
b11 T
1)
#426
0)
#427
b101 E
b100 T
1)
#428
0)
#429
b100 E
b101 T
1)
#430
0)
#431
b11 E
b110 T
1)
#432
0)
#433
b10 E
b111 T
1)
#434
0)
#435
b1 E
b1000 T
1)
#436
0)
#437
b0 E
b1 S
1(
b0 T
1)
#438
0)
#439
1D
b1011 E
b100 .
b100 G
b100 R
17
15
08
b1001 S
b110001 '
b110001 +
b110001 F
b110001 U
b1001 W
0(
b0 T
1)
#440
0)
#441
0D
b1010 E
b1 T
1)
#442
0)
#443
b1001 E
b10 T
1)
#444
0)
#445
b1000 E
b11 T
1)
#446
0)
#447
b111 E
b100 T
1)
#448
0)
#449
b110 E
b101 T
1)
#450
0)
#451
b101 E
b110 T
1)
#452
0)
#453
b100 E
b111 T
1)
#454
0)
#455
b11 E
b1000 T
1)
#456
0)
#457
b10 E
b1 S
1(
b0 T
1)
#458
0)
#459
b1 E
b101 .
b101 G
b101 R
1-
19
17
05
b1001 S
b1000001 '
b1000001 +
b1000001 F
b1000001 U
b1000 W
0(
b0 T
1)
#460
0)
#461
b0 E
b1 T
1)
#462
0)
#463
1D
b1011 E
b10 T
1)
#464
0)
#465
0D
b1010 E
b11 T
1)
#466
0)
#467
b1001 E
b100 T
1)
#468
0)
#469
b1000 E
b101 T
1)
#470
0)
#471
b111 E
b110 T
1)
#472
0)
#473
b110 E
b111 T
1)
#474
0)
#475
b101 E
b1000 T
1)
#476
0)
#477
b100 E
b1 S
1(
b0 T
1)
#478
0)
#479
b11 E
b1 Q
15
0-
17
09
b1001 S
b110010 '
b110010 +
b110010 F
b110010 U
b111 W
0(
b0 T
1)
#480
0)
#481
b10 E
b1 T
1)
#482
0)
#483
b1 E
b10 T
1)
#484
0)
#485
b0 E
b11 T
1)
#486
0)
#487
1D
b1011 E
b100 T
1)
#488
0)
#489
0D
b1010 E
b101 T
1)
#490
0)
#491
b1001 E
b110 T
1)
#492
0)
#493
b1000 E
b111 T
1)
#494
0)
#495
b111 E
b1000 T
1)
#496
0)
#497
b110 E
b1 S
1(
b0 T
1)
#498
0)
#499
b101 E
b10 Q
19
17
05
b1001 S
b1000010 '
b1000010 +
b1000010 F
b1000010 U
b110 W
0(
b0 T
1)
#500
0)
#501
b100 E
b1 T
1)
#502
0)
#503
b11 E
b10 T
1)
#504
0)
#505
b10 E
b11 T
1)
#506
0)
#507
b1 E
b100 T
1)
#508
0)
#509
b0 E
b101 T
1)
#510
0)
#511
1D
b1011 E
b110 T
1)
#512
0)
#513
0D
b1010 E
b111 T
1)
#514
0)
#515
b1001 E
b1000 T
1)
#516
0)
#517
b1000 E
b1 S
1(
b0 T
1)
#518
0)
#519
b111 E
b11 Q
16
07
09
b1001 S
b101011 '
b101011 +
b101011 F
b101011 U
b101 W
0(
b0 T
1)
#520
0)
#521
b110 E
b1 T
1)
#522
0)
#523
b101 E
b10 T
1)
#524
0)
#525
b100 E
b11 T
1)
#526
0)
#527
b11 E
b100 T
1)
#528
0)
#529
b10 E
b101 T
1)
#530
0)
#531
b1 E
b110 T
1)
#532
0)
#533
b0 E
b111 T
1)
#534
0)
#535
1D
b1011 E
b1000 T
1)
#536
0)
#537
0D
b1010 E
b1 S
1(
b0 T
1)
#538
0)
#539
b1001 E
b110 .
b110 G
b110 R
b100 Q
17
15
06
b1001 S
b110011 '
b110011 +
b110011 F
b110011 U
b100 W
0(
b0 T
1)
#540
0)
#541
b1000 E
b1 T
1)
#542
0)
#543
b111 E
b10 T
1)
#544
0)
#545
b110 E
b11 T
1)
#546
0)
#547
b101 E
b100 T
1)
#548
0)
#549
b100 E
b101 T
1)
#550
0)
#551
b11 E
b110 T
1)
#552
0)
#553
b10 E
b111 T
1)
#554
0)
#555
b1 E
b1000 T
1)
#556
0)
#557
b0 E
b1 S
1(
b0 T
1)
#558
0)
#559
1D
b1011 E
b111 .
b111 G
b111 R
b0 Q
19
17
05
b1001 S
b1000011 '
b1000011 +
b1000011 F
b1000011 U
b11 W
0(
b0 T
1)
#560
0)
#561
0D
b1010 E
b1 T
1)
#562
0)
#563
b1001 E
b10 T
1)
#564
0)
#565
b1000 E
b11 T
1)
#566
0)
#567
b111 E
b100 T
1)
#568
0)
#569
b110 E
b101 T
1)
#570
0)
#571
b101 E
b110 T
1)
#572
0)
#573
b100 E
b111 T
1)
#574
0)
#575
b11 E
b1000 T
1)
#576
0)
#577
b10 E
b1 S
1(
b0 T
1)
#578
0)
#579
b1 E
b1 Q
15
17
09
b1001 S
b110100 '
b110100 +
b110100 F
b110100 U
b10 W
0(
b0 T
1)
#580
0)
#581
b0 E
b1 T
1)
#582
0)
#583
1D
b1011 E
b10 T
1)
#584
0)
#585
0D
b1010 E
b11 T
1)
#586
0)
#587
b1001 E
b100 T
1)
#588
0)
#589
b1000 E
b101 T
1)
#590
0)
#591
b111 E
b110 T
1)
#592
0)
#593
b110 E
b111 T
1)
#594
0)
#595
b101 E
b1000 T
1)
#596
0)
#597
b100 E
b1 S
1(
b0 T
1)
#598
0)
#599
b11 E
b10 Q
19
17
05
b1001 S
b1000100 '
b1000100 +
b1000100 F
b1000100 U
b1 W
0(
b0 T
1)
#600
0)
#601
b10 E
b1 T
1)
#602
0)
#603
b1 E
b10 T
1)
#604
0)
#605
b0 E
b11 T
1)
#606
0)
#607
1D
b1011 E
b100 T
1)
#608
0)
#609
0D
b1010 E
b101 T
1)
#610
0)
#611
b1001 E
b110 T
1)
#612
0)
#613
b1000 E
b111 T
1)
#614
0)
#615
b111 E
b1000 T
1)
#616
0)
#617
b110 E
b1 S
1(
b0 T
1)
#618
0)
#619
b101 E
b11 Q
18
07
09
b1001 S
b1111101 '
b1111101 +
b1111101 F
b1111101 U
b0 W
0(
b0 T
1)
#620
0)
#621
b100 E
b1 T
1)
#622
0)
#623
b11 E
b10 T
1)
#624
0)
#625
b10 E
b11 T
1)
#626
0)
#627
b1 E
b100 T
1)
#628
0)
#629
b0 E
b101 T
1)
#630
0)
#631
1D
b1011 E
b110 T
1)
#632
0)
#633
0D
b1010 E
b111 T
1)
#634
0)
#635
b1001 E
b1000 T
1)
#636
0)
#637
b1000 E
b1 S
1(
b0 T
1)
#638
0)
#639
b111 E
b1000 .
b1000 G
b1000 R
b100 Q
1/
14
08
b1001 S
b0 '
b0 +
b0 F
b0 U
b11111111111111111111111111111111 W
0(
b0 T
1)
#640
0)
#641
b110 E
b1 T
1)
#642
0)
#643
b101 E
b10 T
1)
#644
0)
#645
b100 E
b11 T
1)
#646
0)
#647
b11 E
b100 T
1)
#648
0)
#649
b10 E
b101 T
1)
#650
0)
#651
b1 E
b110 T
1)
#652
0)
#653
b0 E
b111 T
1)
#654
0)
#655
1D
b1011 E
b1000 T
1)
#656
0)
#657
0D
b1010 E
b1 S
1(
b0 T
1)
#658
0)
#659
b1001 E
b10 .
b10 G
b10 R
b0 Q
b1100100 S
0(
b0 T
1)
#660
0)
#661
b0 .
b0 G
b0 R
b1000 E
b1 T
1)
#662
0)
#663
1A
1!
1C
b111 E
b10 T
1)
#664
0)
#665
b110 E
b11 T
1)
#666
0)
#667
b101 E
b100 T
1)
#668
0)
#669
b100 E
b101 T
1)
#670
0)
#671
b11 E
b110 T
1)
#672
0)
#673
b10 E
b111 T
1)
#674
0)
#675
b1 E
b1000 T
1)
#676
0)
#677
b0 E
b1001 T
1)
#678
0)
#679
1D
b1011 E
b1010 T
1)
#680
0)
#681
1"
0C
0D
b1010 E
b1011 T
1)
#682
0)
#683
0!
0"
b1001 E
b1100 T
1)
#684
0)
#685
b1000 E
b1101 T
1)
#686
0)
#687
b111 E
b1110 T
1)
#688
0)
#689
b110 E
b1111 T
1)
#690
0)
#691
b101 E
b10000 T
1)
#692
0)
#693
b100 E
b10001 T
1)
#694
0)
#695
b11 E
b10010 T
1)
#696
0)
#697
b10 E
b10011 T
1)
#698
0)
#699
b1 E
b10100 T
1)
#700
0)
#701
b0 E
b10101 T
1)
#702
0)
#703
1D
b1011 E
b10110 T
1)
#704
0)
#705
0D
b1010 E
b10111 T
1)
#706
0)
#707
b1001 E
b11000 T
1)
#708
0)
#709
b1000 E
b11001 T
1)
#710
0)
#711
b111 E
b11010 T
1)
#712
0)
#713
b110 E
b11011 T
1)
#714
0)
#715
b101 E
b11100 T
1)
#716
0)
#717
b100 E
b11101 T
1)
#718
0)
#719
b11 E
b11110 T
1)
#720
0)
#721
b10 E
b11111 T
1)
#722
0)
#723
b1 E
b100000 T
1)
#724
0)
#725
b0 E
b100001 T
1)
#726
0)
#727
1D
b1011 E
b100010 T
1)
#728
0)
#729
0D
b1010 E
b100011 T
1)
#730
0)
#731
b1001 E
b100100 T
1)
#732
0)
#733
b1000 E
b100101 T
1)
#734
0)
#735
b111 E
b100110 T
1)
#736
0)
#737
b110 E
b100111 T
1)
#738
0)
#739
b101 E
b101000 T
1)
#740
0)
#741
b100 E
b101001 T
1)
#742
0)
#743
b11 E
b101010 T
1)
#744
0)
#745
b10 E
b101011 T
1)
#746
0)
#747
b1 E
b101100 T
1)
#748
0)
#749
b0 E
b101101 T
1)
#750
0)
#751
1D
b1011 E
b101110 T
1)
#752
0)
#753
0D
b1010 E
b101111 T
1)
#754
0)
#755
b1001 E
b110000 T
1)
#756
0)
#757
b1000 E
b110001 T
1)
#758
0)
#759
b111 E
b110010 T
1)
#760
0)
#761
b110 E
b110011 T
1)
#762
0)
#763
b101 E
b110100 T
1)
#764
0)
#765
b100 E
b110101 T
1)
#766
0)
#767
b11 E
b110110 T
1)
#768
0)
#769
b10 E
b110111 T
1)
#770
0)
#771
b1 E
b111000 T
1)
#772
0)
#773
b0 E
b111001 T
1)
#774
0)
#775
1D
b1011 E
b111010 T
1)
#776
0)
#777
0D
b1010 E
b111011 T
1)
#778
0)
#779
b1001 E
b111100 T
1)
#780
0)
#781
b1000 E
b111101 T
1)
#782
0)
#783
b111 E
b111110 T
1)
#784
0)
#785
b110 E
b111111 T
1)
#786
0)
#787
b101 E
b1000000 T
1)
#788
0)
#789
b100 E
b1000001 T
1)
#790
0)
#791
b11 E
b1000010 T
1)
#792
0)
#793
b10 E
b1000011 T
1)
#794
0)
#795
b1 E
b1000100 T
1)
#796
0)
#797
b0 E
b1000101 T
1)
#798
0)
#799
1D
b1011 E
b1000110 T
1)
#800
0)
#801
0D
b1010 E
b1000111 T
1)
#802
0)
#803
b1001 E
b1001000 T
1)
#804
0)
#805
b1000 E
b1001001 T
1)
#806
0)
#807
b111 E
b1001010 T
1)
#808
0)
#809
b110 E
b1001011 T
1)
#810
0)
#811
b101 E
b1001100 T
1)
#812
0)
#813
b100 E
b1001101 T
1)
#814
0)
#815
b11 E
b1001110 T
1)
#816
0)
#817
b10 E
b1001111 T
1)
#818
0)
#819
b1 E
b1010000 T
1)
#820
0)
#821
b0 E
b1010001 T
1)
#822
0)
#823
1D
b1011 E
b1010010 T
1)
#824
0)
#825
0D
b1010 E
b1010011 T
1)
#826
0)
#827
b1001 E
b1010100 T
1)
#828
0)
#829
b1000 E
b1010101 T
1)
#830
0)
#831
b111 E
b1010110 T
1)
#832
0)
#833
b110 E
b1010111 T
1)
#834
0)
#835
b101 E
b1011000 T
1)
#836
0)
#837
b100 E
b1011001 T
1)
#838
0)
#839
b11 E
b1011010 T
1)
#840
0)
#841
b10 E
b1011011 T
1)
#842
0)
#843
b1 E
b1011100 T
1)
#844
0)
#845
b0 E
b1011101 T
1)
#846
0)
#847
1D
b1011 E
b1011110 T
1)
#848
0)
#849
0D
b1010 E
b1011111 T
1)
#850
0)
#851
b1001 E
b1100000 T
1)
#852
0)
#853
b1000 E
b1100001 T
1)
#854
0)
#855
b111 E
b1100010 T
1)
#856
0)
#857
b110 E
b1100011 T
1)
#858
0)
#859
b101 E
b1001 S
b1100100 W
b1011 X
b111101101000110010001100011000000110000001011010011000000110000010001100100011001111101 V
b0 T
1)
#860
0)
#861
b100 E
b1 T
1)
#862
0)
#863
b11 E
b10 T
1)
#864
0)
#865
b10 E
b11 T
1)
#866
0)
#867
b1 E
b100 T
1)
#868
0)
#869
b0 E
b101 T
1)
#870
0)
#871
1D
b1011 E
b110 T
1)
#872
0)
#873
0D
b1010 E
b111 T
1)
#874
0)
#875
b1001 E
b1000 T
1)
#876
0)
#877
b1000 E
b1 S
1(
b0 T
1)
#878
0)
#879
b111 E
b1 .
b1 G
b1 R
18
04
0/
b1001 S
b1111011 '
b1111011 +
b1111011 F
b1111011 U
b1010 W
0(
b0 T
1)
#880
0)
#881
0A
b110 E
b1 T
1)
#882
0)
#883
b101 E
b10 T
1)
#884
0)
#885
b100 E
b11 T
1)
#886
0)
#887
b11 E
b100 T
1)
#888
0)
#889
b10 E
b101 T
1)
#890
0)
#891
b1 E
b110 T
1)
#892
0)
#893
b0 E
b111 T
1)
#894
0)
#895
1D
b1011 E
b1000 T
1)
#896
0)
#897
0D
b1010 E
b1 S
1(
b0 T
1)
#898
0)
#899
b1001 E
b100 .
b100 G
b100 R
17
19
08
b1001 S
b1000110 '
b1000110 +
b1000110 F
b1000110 U
b1001 W
0(
b0 T
1)
#900
0)
#901
b1000 E
b1 T
1)
#902
0)
#903
b111 E
b10 T
1)
#904
0)
#905
b110 E
b11 T
1)
#906
0)
#907
b101 E
b100 T
1)
#908
0)
#909
b100 E
b101 T
1)
#910
0)
#911
b11 E
b110 T
1)
#912
0)
#913
b10 E
b111 T
1)
#914
0)
#915
b1 E
b1000 T
1)
#916
0)
#917
b0 E
b1 S
1(
b0 T
1)
#918
0)
#919
1D
b1011 E
b101 .
b101 G
b101 R
b1001 S
b1000 W
0(
b0 T
1)
#920
0)
#921
0D
b1010 E
b1 T
1)
#922
0)
#923
b1001 E
b10 T
1)
#924
0)
#925
b1000 E
b11 T
1)
#926
0)
#927
b111 E
b100 T
1)
#928
0)
#929
b110 E
b101 T
1)
#930
0)
#931
b101 E
b110 T
1)
#932
0)
#933
b100 E
b111 T
1)
#934
0)
#935
b11 E
b1000 T
1)
#936
0)
#937
b10 E
b1 S
1(
b0 T
1)
#938
0)
#939
b1 E
b1 Q
15
17
09
b1001 S
b110000 '
b110000 +
b110000 F
b110000 U
b111 W
0(
b0 T
1)
#940
0)
#941
b0 E
b1 T
1)
#942
0)
#943
1D
b1011 E
b10 T
1)
#944
0)
#945
0D
b1010 E
b11 T
1)
#946
0)
#947
b1001 E
b100 T
1)
#948
0)
#949
b1000 E
b101 T
1)
#950
0)
#951
b111 E
b110 T
1)
#952
0)
#953
b110 E
b111 T
1)
#954
0)
#955
b101 E
b1000 T
1)
#956
0)
#957
b100 E
b1 S
1(
b0 T
1)
#958
0)
#959
b11 E
b10 Q
b1001 S
b110 W
0(
b0 T
1)
#960
0)
#961
b10 E
b1 T
1)
#962
0)
#963
b1 E
b10 T
1)
#964
0)
#965
b0 E
b11 T
1)
#966
0)
#967
1D
b1011 E
b100 T
1)
#968
0)
#969
0D
b1010 E
b101 T
1)
#970
0)
#971
b1001 E
b110 T
1)
#972
0)
#973
b1000 E
b111 T
1)
#974
0)
#975
b111 E
b1000 T
1)
#976
0)
#977
b110 E
b1 S
1(
b0 T
1)
#978
0)
#979
b101 E
b11 Q
16
07
05
b1001 S
b101101 '
b101101 +
b101101 F
b101101 U
b101 W
0(
b0 T
1)
#980
0)
#981
b100 E
b1 T
1)
#982
0)
#983
b11 E
b10 T
1)
#984
0)
#985
b10 E
b11 T
1)
#986
0)
#987
b1 E
b100 T
1)
#988
0)
#989
b0 E
b101 T
1)
#990
0)
#991
1D
b1011 E
b110 T
1)
#992
0)
#993
0D
b1010 E
b111 T
1)
#994
0)
#995
b1001 E
b1000 T
1)
#996
0)
#997
b1000 E
b1 S
1(
b0 T
1)
#998
0)
#999
b111 E
b110 .
b110 G
b110 R
b100 Q
17
15
06
b1001 S
b110000 '
b110000 +
b110000 F
b110000 U
b100 W
0(
b0 T
1)
#1000
0)
#1001
b110 E
b1 T
1)
#1002
0)
#1003
b101 E
b10 T
1)
#1004
0)
#1005
b100 E
b11 T
1)
#1006
0)
#1007
b11 E
b100 T
1)
#1008
0)
#1009
b10 E
b101 T
1)
#1010
0)
#1011
b1 E
b110 T
1)
#1012
0)
#1013
b0 E
b111 T
1)
#1014
0)
#1015
1D
b1011 E
b1000 T
1)
#1016
0)
#1017
0D
b1010 E
b1 S
1(
b0 T
1)
#1018
0)
